sr\unasat\jimmyshoes\config\JPAConfiguration.class
sr\unasat\jimmyshoes\dao\UserTypeDao.class
sr\unasat\jimmyshoes\services\DataManipulation.class
sr\unasat\jimmyshoes\entities\User.class
sr\unasat\jimmyshoes\entities\UserType.class
sr\unasat\jimmyshoes\application\Application.class
sr\unasat\jimmyshoes\dao\UserDao.class
