C:\Users\Rewiesh Ramcharan\Desktop\Unasat\jimmyshoes\src\main\java\sr\unasat\jimmyshoes\dao\UserDao.java
C:\Users\Rewiesh Ramcharan\Desktop\Unasat\jimmyshoes\src\main\java\sr\unasat\jimmyshoes\dao\UserTypeDao.java
C:\Users\Rewiesh Ramcharan\Desktop\Unasat\jimmyshoes\src\main\java\sr\unasat\jimmyshoes\entities\UserType.java
C:\Users\Rewiesh Ramcharan\Desktop\Unasat\jimmyshoes\src\main\java\sr\unasat\jimmyshoes\entities\User.java
C:\Users\Rewiesh Ramcharan\Desktop\Unasat\jimmyshoes\src\main\java\sr\unasat\jimmyshoes\services\DataManipulation.java
C:\Users\Rewiesh Ramcharan\Desktop\Unasat\jimmyshoes\src\main\java\sr\unasat\jimmyshoes\application\Application.java
C:\Users\Rewiesh Ramcharan\Desktop\Unasat\jimmyshoes\src\main\java\sr\unasat\jimmyshoes\config\JPAConfiguration.java
